<?xml version="1.0" encoding="utf-8"?>
<!-- Generator: Adobe Illustrator 15.1.0, SVG Export Plug-In . SVG Version: 6.00 Build 0)  -->
<!DOCTYPE svg PUBLIC "-//W3C//DTD SVG 1.1//EN" "http://www.w3.org/Graphics/SVG/1.1/DTD/svg11.dtd">
<svg version="1.1" id="Layer_1" xmlns="http://www.w3.org/2000/svg" xmlns:xlink="http://www.w3.org/1999/xlink" x="0px" y="0px"
	 width="636.1px" height="450px" viewBox="0 0 636.1 450" enable-background="new 0 0 636.1 450" xml:space="preserve">
<image display="none" overflow="visible" width="512" height="512" xlink:href="../large-icon/large-icon/mastercard.png"  transform="matrix(1 0 0 1 17.396 -44.0605)">
</image>
<g>
	<path d="M89.7,406.6v-32.3c0-3.4-1-6.4-3.1-8.8c-2.2-2.6-4.9-4-8-4c-3.2,0-5.8,1.3-8,3.9c-2,2.4-3.1,5.4-3.1,8.9v32.3H56.7v-32.3
		c0-3.5-1-6.4-3-8.8c-2.2-2.6-5-4-8.1-4c-3.1,0-5.7,1.3-7.9,3.9c-2.1,2.5-3.2,5.5-3.2,8.9v32.3H23.8v-54.1h10.7v4
		c3.6-3.8,8.1-5.7,13.7-5.7c6.3,0,11.1,2.9,14.3,8.8c3.8-5.9,9.1-8.8,16.1-8.8c6.1,0,11.4,2.4,15.7,7.2c4,4.5,6,9.9,6,16.3v32.3
		H89.7z"/>
	<path d="M156.9,406.6v-7.4c-5.1,6.1-11.7,9.1-19.7,9.1c-7.8,0-14.3-2.9-19.4-8.7c-5.1-5.5-7.6-12.2-7.6-20c0-7.9,2.6-14.6,7.7-20.1
		c2.5-3,5.4-5.2,8.7-6.6c3.3-1.4,6.8-2.1,10.6-2.1c7.9,0,14.4,3,19.7,9.1v-7.3h10.8v54.1H156.9z M151.6,366.9
		c-3.5-3.5-7.8-5.2-12.8-5.2c-5,0-9.3,1.8-12.8,5.2c-3.5,3.5-5.2,7.8-5.2,12.8c0,5,1.7,9.3,5.2,12.8c3.5,3.5,7.8,5.2,12.8,5.2
		c5,0,9.3-1.7,12.8-5.2c3.5-3.5,5.2-7.8,5.2-12.8C156.9,374.6,155.1,370.4,151.6,366.9z"/>
	<path d="M199.8,406.6c-4.4,0-8.6-0.7-12.8-2.1c-4.2-1.4-7.7-3.4-10.7-5.9l4.9-8.3c3.2,2.2,6.3,3.9,9.3,5.1c3,1.2,6,1.7,9,1.7
		c2.6,0,4.7-0.5,6.2-1.5c1.5-1,2.3-2.4,2.3-4.3c0-1.8-0.9-3.2-2.7-4.1c-1.8-0.9-4.7-1.8-8.7-3c-3.4-0.9-6.2-1.8-8.6-2.7
		c-2.4-0.9-4.3-1.8-5.7-2.9c-1.5-1.1-2.5-2.3-3.2-3.8c-0.7-1.4-1-3.1-1-5.1c0-2.6,0.5-5,1.5-7.1c1-2.1,2.5-3.9,4.3-5.4
		c1.8-1.5,4-2.6,6.5-3.4s5.2-1.2,8.1-1.2c3.9,0,7.5,0.6,10.9,1.7c3.4,1.1,6.5,2.9,9.4,5.4l-5.3,8c-2.6-2-5.2-3.4-7.7-4.4
		c-2.5-0.9-4.9-1.4-7.4-1.4c-2.2,0-4.1,0.5-5.6,1.4c-1.5,0.9-2.3,2.4-2.3,4.5c0,0.9,0.2,1.7,0.5,2.3c0.4,0.6,0.9,1.1,1.7,1.6
		c0.8,0.5,1.8,0.9,3.1,1.3c1.3,0.4,2.9,0.9,4.8,1.3c3.6,0.9,6.6,1.8,9.2,2.8c2.5,0.9,4.6,2,6.2,3.2c1.6,1.2,2.8,2.6,3.6,4.1
		c0.8,1.6,1.1,3.4,1.1,5.6c0,5.1-1.9,9.1-5.6,12C211.3,405.1,206.2,406.6,199.8,406.6z"/>
	<path d="M260.4,402.9c-1.8,0.8-4,1.6-6.5,2.4c-2.6,0.8-5.3,1.2-8.1,1.2c-1.8,0-3.6-0.2-5.2-0.7c-1.6-0.5-3-1.2-4.3-2.2
		c-1.2-1-2.2-2.3-2.9-4c-0.7-1.6-1.1-3.6-1.1-5.9v-29.8h-6.8v-10.2h6.8v-16.8h13.3v16.8h10.9v10.2h-10.9v25.3c0,1.8,0.5,3.2,1.4,3.9
		c1,0.8,2.1,1.1,3.5,1.1c1.4,0,2.7-0.2,4.1-0.7c1.3-0.5,2.4-0.9,3.2-1.2L260.4,402.9z"/>
	<path d="M323,382c-0.1,0.9-0.2,1.8-0.3,3h-45.4c1.1,3.5,3,6.4,5.9,8.7c3.4,2.6,7.1,4,11.2,4c5.7,0,10.5-2.4,14.5-7.3l9,5.8
		c-2.9,3.8-6.4,6.8-10.5,9c-4.1,2.1-8.4,3.2-12.9,3.2c-7.9,0-14.6-2.8-20.2-8.5c-5.7-5.6-8.5-12.3-8.5-20.2c0-7.9,2.8-14.6,8.5-20.3
		c5.6-5.7,12.3-8.5,20.2-8.5c7.9,0,14.6,2.8,20.3,8.5c5.7,5.7,8.5,12.4,8.5,20.3C323.1,380.3,323.1,381.1,323,382z M277.2,374.2
		h34.4c-1.2-3.6-3.2-6.5-6-8.7c-3.2-2.6-6.9-3.9-11.2-3.9c-4.1,0-7.8,1.3-11.2,3.9C280.2,367.8,278.2,370.7,277.2,374.2z"/>
	<path d="M362,362.4c-1.6-0.5-3.1-0.8-4.7-0.8c-3.6,0-6.7,1.2-9.1,3.7c-2.5,2.5-3.8,5.5-3.8,9.1v32.3h-10.7v-54.1h10.7v4.3
		c4-4,8.8-6,14.6-6c0.5,0,1.2,0,1.9,0.1c0.7,0.1,1.6,0.2,2.5,0.3v10.3L362,362.4z"/>
	<path d="M422.6,396.9c-2.7,3.6-6.1,6.4-10.1,8.4c-4,2-8.3,3-12.8,3c-7.9,0-14.6-2.8-20.2-8.5c-5.7-5.6-8.5-12.3-8.5-20.2
		c0-7.9,2.8-14.6,8.5-20.3c5.6-5.7,12.3-8.5,20.2-8.5c4.5,0,8.8,1.1,12.9,3.2c4.1,2.1,7.6,5.1,10.5,9l-9,5.8
		c-4-4.8-8.8-7.2-14.5-7.2c-5,0-9.3,1.8-12.8,5.2c-3.5,3.5-5.2,7.8-5.2,12.8c0,5,1.7,9.3,5.2,12.8c3.5,3.5,7.8,5.2,12.8,5.2
		c5.5,0,10.4-2.4,14.5-7.3l8.1,5.2L422.6,396.9z"/>
	<path d="M479.3,406.6v-7.4c-5.1,6.1-11.7,9.1-19.7,9.1c-7.8,0-14.3-2.9-19.4-8.7c-5.1-5.5-7.6-12.2-7.6-20c0-7.9,2.6-14.6,7.7-20.1
		c2.5-3,5.4-5.2,8.7-6.6c3.3-1.4,6.8-2.1,10.6-2.1c7.9,0,14.4,3,19.7,9.1v-7.3h10.8v54.1H479.3z M474.1,366.9
		c-3.5-3.5-7.8-5.2-12.8-5.2c-5,0-9.3,1.8-12.8,5.2c-3.5,3.5-5.2,7.8-5.2,12.8c0,5,1.7,9.3,5.2,12.8c3.5,3.5,7.8,5.2,12.8,5.2
		c5,0,9.3-1.7,12.8-5.2c3.5-3.5,5.2-7.8,5.2-12.8C479.3,374.6,477.6,370.4,474.1,366.9z"/>
	<path d="M531.2,362.4c-1.6-0.5-3.1-0.8-4.7-0.8c-3.6,0-6.7,1.2-9.1,3.7c-2.5,2.5-3.8,5.5-3.8,9.1v32.3H503v-54.1h10.7v4.3
		c4-4,8.8-6,14.6-6c0.5,0,1.2,0,1.9,0.1c0.7,0.1,1.6,0.2,2.5,0.3v10.3L531.2,362.4z"/>
	<path d="M586.9,406.6v-7.4c-5.1,6.1-11.7,9.1-19.7,9.1c-7.8,0-14.3-2.9-19.4-8.7c-5.1-5.5-7.6-12.2-7.6-20c0-7.9,2.6-14.6,7.7-20.1
		c2.5-3,5.4-5.2,8.7-6.6c3.3-1.4,6.8-2.1,10.6-2.1c7.9,0,14.4,3,19.7,9.1v-24.7h10.8v71.4H586.9z M581.7,366.9
		c-3.5-3.5-7.8-5.2-12.8-5.2c-5,0-9.3,1.8-12.8,5.2c-3.5,3.5-5.2,7.8-5.2,12.8c0,5,1.7,9.3,5.2,12.8c3.5,3.5,7.8,5.2,12.8,5.2
		c5,0,9.3-1.7,12.8-5.2c3.5-3.5,5.2-7.8,5.2-12.8C586.9,374.6,585.2,370.4,581.7,366.9z"/>
</g>
<g display="none">
	<path display="inline" d="M109.5,610.9H98.6v-29c0-4.8-0.8-8.3-2.4-10.6c-1.6-2.2-3.9-3.4-6.9-3.4c-3.1,0-5.9,1.1-8.5,3.4
		c-2.5,2.3-4.4,5.2-5.5,8.9v30.7H64.5v-29c0-4.9-0.8-8.4-2.4-10.6c-1.6-2.2-3.9-3.3-6.8-3.3c-3.1,0-5.9,1.1-8.5,3.4
		c-2.6,2.2-4.4,5.2-5.5,8.8v30.8H30.3v-51.8h9.9v10.4c2-3.6,4.7-6.4,8.1-8.4c3.3-1.9,7.1-2.9,11.4-2.9c4.3,0,7.7,1.1,10.1,3.4
		c2.5,2.2,4,5,4.6,8.4c2.2-3.8,4.9-6.7,8.2-8.8c3.3-2,7.1-3,11.3-3c3,0,5.6,0.6,7.6,1.7c2,1.2,3.6,2.7,4.8,4.6
		c1.2,1.9,2,4.1,2.5,6.7c0.5,2.5,0.7,5.2,0.7,8.1V610.9z"/>
	<path display="inline" d="M135.9,611.9c-2.5,0-4.8-0.4-7-1.2c-2.1-0.8-4-2-5.5-3.4c-1.6-1.5-2.8-3.2-3.7-5.1
		c-0.9-2-1.3-4.1-1.3-6.4c0-2.4,0.5-4.7,1.6-6.6c1.1-2,2.6-3.7,4.5-5.1c1.9-1.5,4.3-2.6,6.9-3.4s5.6-1.2,8.9-1.2
		c2.4,0,4.9,0.2,7.2,0.6c2.4,0.4,4.5,1,6.4,1.7v-3.6c0-3.8-1.1-6.8-3.3-9c-2.2-2.1-5.3-3.2-9.4-3.2c-2.8,0-5.5,0.5-8.2,1.5
		c-2.7,1-5.4,2.5-8.3,4.4l-3.4-6.9c6.7-4.5,13.6-6.7,20.8-6.7c7.1,0,12.7,1.8,16.6,5.4c4,3.6,5.9,8.8,5.9,15.6V598
		c0,2.3,1,3.5,2.9,3.6v9.3c-1.1,0.2-2,0.3-2.7,0.4c-0.8,0.1-1.5,0.1-2.2,0.1c-2.1,0-3.7-0.5-4.9-1.6c-1.2-1.1-1.9-2.4-2.1-4.1
		l-0.3-3.3c-2.3,3-5.2,5.4-8.6,7C143.4,611.1,139.8,611.9,135.9,611.9z M138.8,603.9c2.6,0,5.1-0.5,7.5-1.4c2.3-1,4.2-2.3,5.5-4
		c1.4-1.2,2.1-2.4,2.1-3.8v-6.8c-1.8-0.7-3.8-1.3-5.9-1.7s-4.1-0.6-6.1-0.6c-3.9,0-7.1,0.8-9.6,2.5c-2.5,1.7-3.7,3.9-3.7,6.7
		c0,2.6,1,4.7,2.9,6.5C133.4,603,135.9,603.9,138.8,603.9z"/>
	<path display="inline" d="M196.7,611.9c-4.2,0-8.3-0.7-12.4-2c-4.1-1.4-7.7-3.3-10.6-5.8l4.4-6.9c3.1,2.2,6.2,3.9,9.2,5.1
		c3,1.2,6.1,1.7,9.3,1.7c3.2,0,5.8-0.6,7.7-1.9c1.9-1.3,2.8-3,2.8-5.3c0-2.2-1.1-3.8-3.2-4.8c-2.1-1-5.4-2.1-9.9-3.3
		c-3.2-0.9-6-1.7-8.3-2.5c-2.3-0.8-4.2-1.7-5.6-2.8c-1.5-1.1-2.5-2.3-3.2-3.7c-0.7-1.4-1-3.1-1-5c0-2.6,0.5-5,1.5-7
		c1-2,2.4-3.8,4.3-5.2c1.8-1.4,3.9-2.5,6.4-3.2c2.4-0.7,5.1-1.1,7.9-1.1c3.9,0,7.5,0.6,10.9,1.8c3.4,1.2,6.4,2.9,9,5.1l-4.7,6.5
		c-4.8-3.8-9.9-5.7-15.3-5.7c-2.8,0-5.1,0.6-7,1.7c-1.9,1.2-2.8,3-2.8,5.5c0,1.1,0.2,1.9,0.6,2.7c0.4,0.7,1,1.4,1.9,1.9
		c0.9,0.5,2,1,3.5,1.4c1.4,0.4,3.2,0.9,5.3,1.4c3.5,0.9,6.5,1.7,9.1,2.6c2.5,0.9,4.6,1.9,6.3,3c1.6,1.2,2.9,2.5,3.7,4.1
		c0.8,1.6,1.2,3.4,1.2,5.6c0,5-1.9,8.9-5.6,11.7C208.2,610.4,203.1,611.9,196.7,611.9z"/>
	<path display="inline" d="M255.8,608.2c-1.4,0.7-3.3,1.4-5.7,2.2c-2.4,0.8-5,1.2-7.8,1.2c-1.7,0-3.3-0.2-4.9-0.7
		c-1.5-0.5-2.9-1.2-4-2.1c-1.2-0.9-2.1-2.1-2.7-3.6c-0.7-1.5-1-3.3-1-5.4v-32.4h-6.8v-8.4h6.8v-17h10.9v17h11.3v8.4h-11.3v28.9
		c0.1,1.8,0.7,3.2,1.7,4c1,0.8,2.3,1.2,3.8,1.2c1.5,0,3-0.3,4.4-0.8c1.4-0.5,2.4-1,3.1-1.3L255.8,608.2z"/>
	<path display="inline" d="M285.5,611.9c-4,0-7.7-0.7-11-2.1c-3.3-1.4-6.1-3.3-8.5-5.8c-2.3-2.4-4.2-5.3-5.4-8.5
		c-1.3-3.2-1.9-6.7-1.9-10.3c0-3.6,0.6-7.1,1.9-10.3c1.3-3.3,3.1-6.1,5.4-8.6c2.3-2.5,5.2-4.4,8.5-5.8c3.3-1.4,7-2.1,11.1-2.1
		c4,0,7.7,0.7,10.9,2.2c3.3,1.5,6.1,3.4,8.4,5.8c2.3,2.4,4.1,5.2,5.3,8.4c1.2,3.2,1.8,6.6,1.8,10c0,0.8,0,1.5-0.1,2.2
		c-0.1,0.7-0.1,1.3-0.2,1.7h-41.5c0.2,2.3,0.7,4.4,1.6,6.2c0.9,1.8,2,3.4,3.5,4.8c1.4,1.4,3,2.4,4.9,3.1c1.8,0.7,3.7,1.1,5.7,1.1
		c1.5,0,2.9-0.2,4.3-0.5c1.4-0.4,2.7-0.9,3.9-1.6c1.2-0.7,2.2-1.5,3.2-2.5c0.9-1,1.6-2.1,2.2-3.3l9.3,2.7c-1.8,3.9-4.7,7.1-8.9,9.6
		C295.8,610.6,291,611.9,285.5,611.9z M301.3,581.1c-0.2-2.2-0.7-4.2-1.6-6c-0.9-1.8-2-3.4-3.4-4.7c-1.4-1.3-3-2.3-4.9-3
		c-1.8-0.7-3.8-1.1-5.8-1.1c-2,0-4,0.4-5.8,1.1c-1.8,0.7-3.4,1.7-4.8,3c-1.4,1.3-2.5,2.9-3.4,4.7c-0.9,1.8-1.4,3.9-1.6,6H301.3z"/>
	<path display="inline" d="M350.1,568.5c-4.2,0.1-8,1.1-11.2,2.9c-3.3,1.8-5.6,4.4-7,7.8v31.7H321v-51.8h10.1v11.6
		c1.8-3.6,4.1-6.4,7-8.6c2.9-2.1,6-3.3,9.3-3.5c0.7,0,1.2,0,1.6,0c0.4,0,0.8,0,1.1,0.1V568.5z"/>
	<path display="inline" d="M352.1,585c0-3.6,0.6-7.1,1.9-10.3c1.3-3.2,3.1-6.1,5.4-8.5c2.3-2.4,5.2-4.4,8.5-5.8
		c3.3-1.4,7-2.1,11.1-2.1c5.3,0,9.9,1.2,13.8,3.5c3.9,2.3,6.7,5.5,8.7,9.4l-10.6,3.4c-1.3-2.2-2.9-3.9-5-5.1c-2.1-1.2-4.5-1.8-7-1.8
		c-2.2,0-4.2,0.4-6.1,1.3c-1.9,0.9-3.5,2.1-4.9,3.6c-1.4,1.6-2.5,3.4-3.3,5.5c-0.8,2.1-1.2,4.5-1.2,7c0,2.5,0.4,4.8,1.2,7
		c0.8,2.1,1.9,4,3.4,5.6c1.4,1.6,3.1,2.8,4.9,3.7c1.9,0.9,3.9,1.3,6,1.3c1.3,0,2.6-0.2,4-0.5c1.3-0.4,2.5-0.9,3.6-1.5
		c1.1-0.7,2-1.4,2.9-2.3c0.8-0.9,1.4-1.8,1.8-2.8l10.7,3.2c-1.7,3.9-4.6,7.1-8.6,9.6c-4,2.5-8.8,3.7-14.3,3.7c-4,0-7.7-0.7-11-2.2
		c-3.3-1.5-6.1-3.4-8.5-5.9c-2.3-2.5-4.2-5.3-5.4-8.6C352.7,592,352.1,588.6,352.1,585z"/>
	<path display="inline" d="M424.5,611.9c-2.5,0-4.8-0.4-7-1.2c-2.1-0.8-4-2-5.5-3.4c-1.6-1.5-2.8-3.2-3.7-5.1
		c-0.9-2-1.3-4.1-1.3-6.4c0-2.4,0.5-4.7,1.6-6.6c1.1-2,2.6-3.7,4.5-5.1c1.9-1.5,4.3-2.6,6.9-3.4c2.7-0.8,5.6-1.2,8.9-1.2
		c2.4,0,4.9,0.2,7.2,0.6c2.4,0.4,4.5,1,6.4,1.7v-3.6c0-3.8-1.1-6.8-3.3-9c-2.2-2.1-5.3-3.2-9.4-3.2c-2.8,0-5.5,0.5-8.2,1.5
		c-2.7,1-5.4,2.5-8.3,4.4l-3.4-6.9c6.7-4.5,13.6-6.7,20.8-6.7c7.1,0,12.7,1.8,16.6,5.4c4,3.6,5.9,8.8,5.9,15.6V598
		c0,2.3,1,3.5,2.9,3.6v9.3c-1.1,0.2-2,0.3-2.7,0.4c-0.8,0.1-1.5,0.1-2.2,0.1c-2.1,0-3.7-0.5-4.9-1.6c-1.2-1.1-1.9-2.4-2.1-4.1
		l-0.3-3.3c-2.3,3-5.2,5.4-8.6,7C432.1,611.1,428.4,611.9,424.5,611.9z M427.5,603.9c2.6,0,5.1-0.5,7.5-1.4c2.3-1,4.2-2.3,5.5-4
		c1.4-1.2,2.1-2.4,2.1-3.8v-6.8c-1.8-0.7-3.8-1.3-5.9-1.7s-4.1-0.6-6.1-0.6c-3.9,0-7.1,0.8-9.6,2.5c-2.5,1.7-3.7,3.9-3.7,6.7
		c0,2.6,1,4.7,2.9,6.5C422.1,603,424.5,603.9,427.5,603.9z"/>
	<path display="inline" d="M495.7,568.5c-4.2,0.1-8,1.1-11.2,2.9c-3.3,1.8-5.6,4.4-7,7.8v31.7h-10.9v-51.8h10.1v11.6
		c1.8-3.6,4.1-6.4,7-8.6c2.9-2.1,6-3.3,9.3-3.5c0.7,0,1.2,0,1.6,0c0.4,0,0.8,0,1.1,0.1V568.5z"/>
	<path display="inline" d="M522.2,611.9c-3.5,0-6.7-0.7-9.7-2.1c-3-1.4-5.5-3.3-7.7-5.8c-2.2-2.4-3.9-5.3-5.1-8.6
		c-1.2-3.3-1.8-6.8-1.8-10.5c0-3.6,0.6-7,1.7-10.2c1.2-3.2,2.8-6,4.9-8.5c2.1-2.4,4.5-4.4,7.3-5.8c2.8-1.4,5.9-2.1,9.3-2.1
		c4.2,0,7.8,1,11,3c3.2,2,5.6,4.6,7.4,7.7v-30.3h10.9V598c0,1.3,0.2,2.1,0.6,2.7c0.4,0.5,1.2,0.8,2.3,0.9v9.3
		c-1.1,0.2-2,0.3-2.7,0.4c-0.7,0.1-1.3,0.1-1.7,0.1c-2.2,0-4-0.6-5.3-1.7c-1.4-1.1-2.1-2.6-2.3-4.4l-0.2-3.9
		c-1.9,3.2-4.5,5.8-7.8,7.6C529.8,611,526.2,611.9,522.2,611.9z M524.8,602.6c1.6,0,3.2-0.3,4.8-0.8c1.6-0.5,3-1.3,4.4-2.2
		c1.3-0.9,2.5-2,3.4-3.3c1-1.3,1.6-2.6,2-4.1v-13.6c-0.6-1.6-1.4-3.2-2.5-4.6c-1.1-1.4-2.3-2.6-3.7-3.6c-1.4-1-2.9-1.7-4.4-2.3
		c-1.6-0.5-3.1-0.8-4.7-0.8c-2.2,0-4.2,0.5-6,1.5c-1.8,1-3.4,2.3-4.7,4c-1.3,1.7-2.4,3.5-3.1,5.6c-0.8,2.1-1.1,4.3-1.1,6.5
		c0,2.4,0.4,4.6,1.2,6.7c0.8,2.1,2,4,3.4,5.5c1.5,1.6,3.1,2.8,5,3.8C520.6,602.1,522.6,602.6,524.8,602.6z"/>
</g>
<circle fill="#EA1D25" cx="189.9" cy="175.6" r="135.1"/>
<circle fill="#F69E1F" cx="357.3" cy="176.2" r="135.1"/>
<path fill="#F16022" d="M222,175.7c0,42.8,19.9,81,51,105.7c31.5-24.7,51.8-63.2,51.8-106.4c0-42.8-19.9-81-51-105.7
	C242.3,94.1,222,132.5,222,175.7z"/>
<g display="none">
	<g display="inline">
		<path fill="#F16022" d="M290,67.1c-40,19.3-67.8,60.9-67.8,109.2c0,48.3,27.7,89.9,67.8,109.2c40-19.3,67.8-60.9,67.8-109.2
			S330.1,86.4,290,67.1z"/>
	</g>
</g>
<image display="none" overflow="visible" width="512" height="512" xlink:href="../large-icon/large-icon/mastercard.png"  transform="matrix(1 0 0 1 -740.6958 -16.4395)">
</image>
<g>
	<path fill="#F69E1F" d="M485,239.3h-2.3v-0.8h5.5v0.8H486v6.6h-1V239.3z"/>
	<path fill="#F69E1F" d="M495.3,242.6c-0.1-1-0.1-2.3-0.1-3.2h0c-0.3,0.9-0.6,1.8-0.9,2.8l-1.3,3.6h-0.7l-1.2-3.5
		c-0.4-1.1-0.6-2-0.8-2.9h0c0,0.9-0.1,2.2-0.1,3.3l-0.2,3.2h-0.9l0.5-7.4h1.2l1.3,3.6c0.3,0.9,0.5,1.7,0.7,2.5h0
		c0.2-0.7,0.5-1.6,0.8-2.5l1.3-3.6h1.2l0.5,7.4h-0.9L495.3,242.6z"/>
</g>
<circle fill="none" stroke="#000000" stroke-miterlimit="10" cx="612.8" cy="404.9" r="4.8"/>
<g>
	<path d="M611.8,404.7v2.2h-0.7v-5h1.8c0.5,0,1,0.1,1.2,0.4c0.3,0.2,0.4,0.6,0.4,1.1c0,0.3-0.1,0.5-0.2,0.7s-0.3,0.3-0.6,0.5
		c0.3,0.1,0.5,0.2,0.6,0.4c0.1,0.2,0.2,0.4,0.2,0.7v0.5c0,0.2,0,0.3,0.1,0.4c0,0.1,0.1,0.2,0.2,0.3v0.1h-0.7
		c-0.1-0.1-0.1-0.2-0.2-0.3s0-0.3,0-0.5v-0.5c0-0.3-0.1-0.5-0.2-0.7c-0.2-0.2-0.4-0.2-0.6-0.2H611.8z M611.8,404.1h1.1
		c0.4,0,0.7-0.1,0.8-0.2s0.3-0.4,0.3-0.7c0-0.3-0.1-0.5-0.2-0.7c-0.2-0.2-0.4-0.2-0.8-0.2h-1.1V404.1z"/>
</g>
</svg>
